gapminder - A Hugo website
…
国ごとの調整済み決定係数を見る.

by_country <- by_country %>%
  mutate(glance = map(model, broom::glance))
glance <- unnest(by_country, glance, .drop = TRUE)
glance %>% arrange(r.squared)

## # A tibble: 142 x 13
##    count~ cont~ r.squ~ adj.r.s~ sigma stat~ p.val~    df logL~   AIC   BIC
##    <fctr> <fct>  <dbl>    <dbl> <dbl> <dbl>  <dbl> <int> <dbl> <dbl> <dbl>
##  1 Rwanda Afri~ 0.0172 -0.0811   6.56 0.175 0.685      2 -38.5  83.0  84.5
##  2 Botsw~ Afri~ 0.0340 -0.0626   6.11 0.352 0.566      2 -37.7  81.3  82.8
##  3 Zimba~ Afri~ 0.0562 -0.0381   7.21 0.596 0.458      2 -39.6  85.3  86.7
##  4 Zambia Afri~ 0.0598 -0.0342   4.53 0.636 0.444      2 -34.1  74.1  75.6
##  5 Swazi~ Afri~ 0.0682 -0.0250   6.64 0.732 0.412      2 -38.7  83.3  84.8
##  6 Lesot~ Afri~ 0.0849 -0.00666  5.93 0.927 0.358      2 -37.3  80.6  82.1
##  7 Cote ~ Afri~ 0.283   0.212    3.93 3.95  0.0748     2 -32.3  70.7  72.1
##  8 South~ Afri~ 0.312   0.244    4.74 4.54  0.0588     2 -34.6  75.2  76.7
##  9 Uganda Afri~ 0.342   0.276    3.19 5.20  0.0457     2 -29.8  65.7  67.1
## 10 Congo~ Afri~ 0.348   0.283    2.43 5.34  0.0434     2 -26.6  59.2  60.6
## # ... with 132 more rows, and 2 more variables: deviance <dbl>,
## #   df.residual <int>
…
おまけ

係数の結果を表として取り出す.

coef <- by_country %>% unnest(model %>% purrr::map(broom::tidy))

by_country <- by_country %>% mutate(coef = map(model, broom::tidy))
coef <- by_country %>% unnest(coef, .drop=TRUE)
coef

## # A tibble: 284 x 7
##    country     continent term         estimate std.error statis~   p.value
##    <fctr>      <fctr>    <chr>           <dbl>     <dbl>   <dbl>     <dbl>
##  1 Afghanistan Asia      (Intercept) - 508      40.5      -12.5   1.93e- 7
##  2 Afghanistan Asia      year            0.275   0.0205    13.5   9.84e- 8
##  3 Albania     Europe    (Intercept) - 594      65.7      - 9.05  3.94e- 6
##  4 Albania     Europe    year            0.335   0.0332    10.1   1.46e- 6
##  5 Algeria     Africa    (Intercept) -1068      43.8      -24.4   3.07e-10
##  6 Algeria     Africa    year            0.569   0.0221    25.7   1.81e-10
##  7 Angola      Africa    (Intercept) - 377      46.6      - 8.08  1.08e- 5
##  8 Angola      Africa    year            0.209   0.0235     8.90  4.59e- 6
##  9 Argentina   Americas  (Intercept) - 390       9.68     -40.3   2.14e-12
## 10 Argentina   Americas  year            0.232   0.00489   47.4   4.22e-13
## # ... with 274 more rows
…
