…
国ごとの調整済み決定係数を見る.

by_country <- by_country %>%
  mutate(glance = map(model, broom::glance))
glance <- unnest(by_country, glance, .drop = TRUE)
glance %>% arrange(r.squared)

## # A tibble: 142 x 13
##             country continent  r.squared adj.r.squared    sigma statistic
##              <fctr>    <fctr>      <dbl>         <dbl>    <dbl>     <dbl>
##  1           Rwanda    Africa 0.01715964  -0.081124401 6.558269 0.1745923
##  2         Botswana    Africa 0.03402340  -0.062574259 6.112177 0.3522177
##  3         Zimbabwe    Africa 0.05623196  -0.038144842 7.205431 0.5958240
##  4           Zambia    Africa 0.05983644  -0.034179918 4.528713 0.6364471
##  5        Swaziland    Africa 0.06821087  -0.024968046 6.644091 0.7320419
##  6          Lesotho    Africa 0.08485635  -0.006658011 5.933934 0.9272463
##  7    Cote d'Ivoire    Africa 0.28337240   0.211709644 3.925590 3.9542491
##  8     South Africa    Africa 0.31246865   0.243715518 4.744356 4.5447914
##  9           Uganda    Africa 0.34215382   0.276369202 3.187668 5.2011219
## 10 Congo, Dem. Rep.    Africa 0.34820278   0.283023054 2.429489 5.3421948
## # ... with 132 more rows, and 7 more variables: p.value <dbl>, df <int>,
## #   logLik <dbl>, AIC <dbl>, BIC <dbl>, deviance <dbl>, df.residual <int>
…
おまけ

係数の結果を表として取り出す.

coef <- by_country %>% unnest(model %>% purrr::map(broom::tidy))

by_country <- by_country %>% mutate(coef = map(model, broom::tidy))
coef <- by_country %>% unnest(coef, .drop=TRUE)
coef

## # A tibble: 284 x 7
##        country continent        term      estimate    std.error  statistic
##         <fctr>    <fctr>       <chr>         <dbl>        <dbl>      <dbl>
##  1 Afghanistan      Asia (Intercept)  -507.5342716 40.484161954 -12.536613
##  2 Afghanistan      Asia        year     0.2753287  0.020450934  13.462890
##  3     Albania    Europe (Intercept)  -594.0725110 65.655359062  -9.048348
##  4     Albania    Europe        year     0.3346832  0.033166387  10.091036
##  5     Algeria    Africa (Intercept) -1067.8590396 43.802200843 -24.379118
##  6     Algeria    Africa        year     0.5692797  0.022127070  25.727749
##  7      Angola    Africa (Intercept)  -376.5047531 46.583370599  -8.082385
##  8      Angola    Africa        year     0.2093399  0.023532003   8.895964
##  9   Argentina  Americas (Intercept)  -389.6063445  9.677729641 -40.258031
## 10   Argentina  Americas        year     0.2317084  0.004888791  47.395847
## # ... with 274 more rows, and 1 more variables: p.value <dbl>
…
